Date,Open,High,Low,Close,Volume
5/11/2018 16:56:00,82.81,83.44,82.18,82.29,1481310
5/14/2018 16:56:00,82.97,83.11,81.72,82.39,1636100
5/15/2018 16:56:00,81.39,82.28,80.91,82.21,3052870
5/16/2018 16:56:00,82.21,83.67,81.35,83.42,3632500
5/17/2018 16:56:00,82.89,83,80.5,80.78,4942890
5/18/2018 16:56:00,79.99,80.3,78.59,80.21,4685590
5/21/2018 16:56:00,80.93,80.95,78.79,79.2,2486800
5/22/2018 16:56:00,79.86,80.53,78.74,80,6621530
5/23/2018 16:56:00,78.98,79.29,78,78.25,3207970
5/24/2018 16:56:00,76.67,77.61,76.21,77.45,3676750
5/25/2018 16:56:00,77.5,77.85,75.9,76.3,2499620
5/28/2018 16:56:00,77.5,77.85,72.69,72.69,5519000
5/29/2018 16:56:00,73.94,74.56,72.8,73.4,6758590
5/30/2018 16:56:00,73.25,74.47,72.88,74.07,5190500
6/1/2018 16:56:00,74.75,75.43,72.75,74.62,3109490
6/4/2018 16:56:00,75.53,75.95,75.16,75.85,2518840
6/5/2018 16:56:00,75.3,76.16,73.78,74.1,1922480
6/6/2018 16:56:00,73.6,74.33,72.83,73.47,4937200
6/7/2018 16:56:00,72.49,72.62,68.69,71.37,8203450
6/8/2018 16:56:00,71.5,72,69.15,70.4,6794370
6/11/2018 16:56:00,70.5,72,69.34,69.86,3261420
6/12/2018 16:56:00,69.85,70.79,69.58,70.27,2469070
6/13/2018 16:56:00,70.61,70.61,68.59,69.75,4546250
6/14/2018 16:56:00,69.75,70.31,68.8,68.8,3107620
6/15/2018 16:56:00,68.65,68.69,67.14,68.11,5814500
6/18/2018 16:56:00,67.65,68,66.94,67.52,4350520
6/19/2018 16:56:00,66.96,69.59,66.64,68.81,2996190
6/20/2018 16:56:00,69.65,70.02,68.63,69.51,3315200
6/21/2018 16:56:00,69.34,69.6,67.57,67.66,2986380
6/22/2018 16:56:00,68.01,68.58,67.47,68.18,1317850
6/25/2018 16:56:00,68.35,68.87,67.33,68.6,4309650
6/26/2018 16:56:00,68.62,69.11,67.74,69,2142290
6/27/2018 16:56:00,68.7,69.47,67.65,68,1765480
6/28/2018 16:56:00,68,69.58,67.94,69.4,2073370
6/29/2018 16:56:00,70,70.44,69.56,70.35,4618140
7/2/2018 16:56:00,69.59,70.3,69.39,70.3,1904690
7/3/2018 16:56:00,70.51,71.92,70.51,71.1,3489390
7/4/2018 16:56:00,71.3,72.22,70.86,72.11,2064650
7/5/2018 16:56:00,72.11,72.5,71.13,71.87,2389720
7/6/2018 16:56:00,71.87,72.45,71.43,72.45,1264210
7/10/2018 16:56:00,73,73.24,71.81,72.35,2998890
7/11/2018 16:56:00,71.9,72.45,71.6,71.76,3648260
7/12/2018 16:56:00,71.91,73.26,71.91,73.26,2300060
7/13/2018 16:56:00,73.34,74.01,72.89,74.01,1490600
7/16/2018 16:56:00,73.87,74.26,73.45,73.95,2507390
7/17/2018 16:56:00,73.99,75.8,73.99,75.37,4886570
7/18/2018 16:56:00,75.39,75.65,74.44,74.66,2070230
7/19/2018 16:56:00,73.89,74.65,73.24,74.65,2014870
7/20/2018 16:56:00,76.5,76.7,75.55,75.8,5432360
7/23/2018 16:56:00,75.6,75.88,75.11,75.25,1766630
7/24/2018 16:56:00,76.41,76.71,76.02,76.5,2251430
7/25/2018 16:56:00,76.68,77.65,76.51,77.37,2663670
7/26/2018 16:56:00,77.4,77.67,76.31,76.62,2110500
7/27/2018 16:56:00,77.02,77.45,76.63,77.13,3133040
7/30/2018 16:56:00,77.19,77.67,76.9,77.42,1505230
7/31/2018 16:56:00,77.06,77.1,76.23,76.45,2239720
8/1/2018 16:56:00,76.01,76.96,76,76.46,1698780
8/2/2018 16:56:00,76.25,77.13,75.8,76.95,1929680
8/3/2018 16:56:00,77.47,78.94,77.37,78.66,3568530
8/6/2018 16:56:00,78.8,78.92,78.13,78.24,1832160
8/7/2018 16:56:00,78.77,78.94,77.13,77.49,6178040
8/8/2018 16:56:00,77.57,78.12,76.18,76.32,3667070
8/9/2018 16:56:00,76.65,76.7,75.4,75.96,4730950
8/10/2018 16:56:00,75.49,75.49,73.4,73.8,8498750
8/13/2018 16:56:00,73.41,74.99,73.27,74.89,3423880
8/14/2018 16:56:00,75.5,75.99,74.94,75.9,2888740
8/15/2018 16:56:00,75.25,75.26,74.17,74.39,3944040
8/16/2018 16:56:00,74.83,74.99,73.72,74.14,3103830
8/17/2018 16:56:00,73.32,73.71,73.01,73.35,3271310
8/20/2018 16:56:00,73.15,73.84,72.91,73.68,5018420
8/21/2018 16:56:00,73.39,73.69,72.3,72.51,3164630
8/22/2018 16:56:00,72.44,74.15,72.08,74.15,3407500
8/23/2018 16:56:00,74.25,74.53,72.85,73.03,2569870
8/24/2018 16:56:00,73.8,74,73.07,73.68,1966850
8/27/2018 16:56:00,73.85,75.28,73.85,75.1,2952810
8/28/2018 16:56:00,75,75.31,74.43,74.79,1966220
8/29/2018 16:56:00,74.8,76.04,74.8,75.68,2110820
8/30/2018 16:56:00,75.19,75.5,73.7,73.74,5157370
8/31/2018 16:56:00,73.67,74.5,73.34,74.12,3273090
9/3/2018 16:56:00,73.66,73.73,73.09,73.48,2277100
9/4/2018 16:56:00,73.33,73.38,71.97,72.07,2660690
9/5/2018 16:56:00,71.9,72.72,71.63,72.42,1415260
9/6/2018 16:56:00,73.03,74.1,72.33,74.1,3526080
9/10/2018 16:56:00,74.32,74.68,73.43,74,2542350
9/11/2018 16:56:00,72.76,72.76,71.69,72.13,5744950
9/12/2018 16:56:00,72.77,73.02,71.87,72.57,1847780
9/13/2018 16:56:00,72.72,72.74,71.89,72.02,2328540
9/14/2018 16:56:00,72.03,73.05,71.81,72.81,3344520
9/17/2018 16:56:00,72.51,74.21,72.49,74.07,3661700
9/18/2018 16:56:00,74.14,75.7,74.04,75.35,3028650
9/19/2018 16:56:00,75.23,76.24,74.86,75.27,2206310
9/20/2018 16:56:00,75.83,76.14,75.08,75.33,1328510
9/21/2018 16:56:00,75.75,77.23,75.7,76.5,4743350
9/24/2018 16:56:00,76.55,76.59,75.09,75.2,2294840
9/25/2018 16:56:00,74.49,75.92,74.26,75.88,2387950
9/26/2018 16:56:00,75.88,76.67,75.75,75.85,2189330
9/27/2018 16:56:00,76.1,77.29,76.1,77.07,1695860
9/28/2018 16:56:00,76.08,77.09,76.08,76.61,1855010
10/1/2018 16:56:00,76.75,76.75,75.33,75.8,2264870
10/2/2018 16:56:00,77.7,78.88,77.59,78.78,6012150
10/3/2018 16:56:00,81.9,82.2,79.84,80.29,6978050
10/4/2018 16:56:00,80,80.55,79.04,79.88,4266170
10/5/2018 16:56:00,82,82,79.12,79.45,6091660
10/8/2018 16:56:00,83.45,84.47,82.14,83.64,10872240
10/9/2018 16:56:00,83.55,83.6,82.45,83,4986960
10/10/2018 16:56:00,82.46,82.46,80.73,80.73,2729900
10/11/2018 16:56:00,81.85,81.85,79.62,80.15,4937760
10/15/2018 16:56:00,81.19,81.31,80.3,80.46,3921070
10/16/2018 16:56:00,81.14,82.91,81.14,82.6,4573770
10/17/2018 16:56:00,82.34,83.16,81.95,82.72,2661050
10/18/2018 16:56:00,82.69,82.69,80.91,80.91,3375860
10/19/2018 16:56:00,82.69,82.69,80.68,81.22,2433690
10/22/2018 16:56:00,82,82.76,82,82.62,2632190
10/23/2018 16:56:00,81.68,82.57,81,82.29,4109760
10/24/2018 16:56:00,82.62,82.88,80.14,80.15,3855400
10/25/2018 16:56:00,81,81.85,80.35,81.03,5408391
10/26/2018 16:56:00,81.75,82.71,80.52,82.71,8154990
10/29/2018 16:56:00,82.1,82.88,79.85,80.81,17165950
10/30/2018 16:56:00,81.66,83.95,80.91,83.76,10534910
10/31/2018 16:56:00,84.44,84.93,83.17,84.08,4576470
11/1/2018 16:56:00,84.51,85.88,84,85.25,5704260
11/5/2018 16:56:00,85.84,86.38,85.18,86.1,3159060
11/6/2018 16:56:00,85.11,86.23,85,85.28,3202760
11/7/2018 16:56:00,85.92,86.31,84.39,84.59,4731060
11/8/2018 16:56:00,85.32,85.47,82.6,82.6,6175380
11/9/2018 16:56:00,82.5,83.19,81.02,82.52,7600390
11/12/2018 16:56:00,82.62,83.18,81.97,82.35,4535460
11/13/2018 16:56:00,82.8,82.97,81.11,81.64,5415070
11/14/2018 16:56:00,81.64,82.65,81.24,82.65,5085040
11/16/2018 16:56:00,83.51,85.3,83.06,85.3,4682340
11/19/2018 16:56:00,85,85.05,83.92,84.3,2566430
11/21/2018 16:56:00,83.12,84.28,82.61,84.28,3193560
11/22/2018 16:56:00,84.07,84.54,84.02,84.3,1144740
11/23/2018 16:56:00,84.5,84.51,82.72,83.03,3074100
11/26/2018 16:56:00,83.53,84.04,81.85,82.34,5083550
11/27/2018 16:56:00,82.98,84.95,82.2,84.49,5398670
11/28/2018 16:56:00,84.51,86.28,84.07,86,5909730
11/29/2018 16:56:00,85.29,86.73,85.11,86.38,4712190
11/30/2018 16:56:00,86.1,87.04,86.03,86.37,5117810
12/3/2018 16:56:00,88.1,88.15,86.21,86.49,5529260
12/4/2018 16:56:00,86.88,87.2,84.88,85.23,5060820
12/5/2018 16:56:00,85.7,86.06,85.27,86.03,1938500
12/6/2018 16:56:00,84.28,85.68,83.91,85.54,4621160
12/7/2018 16:56:00,85.48,86.8,84.75,84.93,4935450
12/10/2018 16:56:00,84.78,85.17,82.86,82.86,5783250
12/11/2018 16:56:00,84,84.4,82.49,83.5,4130900
12/12/2018 16:56:00,84.19,84.8,83.62,83.9,4736440
12/13/2018 16:56:00,83.95,84.73,83.74,84.28,2613820
12/14/2018 16:56:00,83.9,85.04,83.9,84.21,3096280
12/17/2018 16:56:00,84.5,84.64,83.21,83.24,5598400
12/18/2018 16:56:00,83.51,84.2,83.43,83.5,3467550
12/19/2018 16:56:00,84.3,84.95,82.5,82.5,4565100
12/20/2018 16:56:00,83.39,83.51,81.74,82.42,5150770
12/21/2018 16:56:00,82.3,83.49,82.06,82.44,5609610
12/26/2018 16:56:00,82.12,82.43,80.9,82.14,3075130
12/27/2018 16:56:00,81.75,82.7,81.65,82.65,1991620
12/28/2018 16:56:00,83.23,85,83.23,84.6,1626090
1/2/2019 16:56:00,84.6,88.26,84.35,87.9,5021260
1/3/2019 16:56:00,87.55,88.4,86.8,88,4300220
1/4/2019 16:56:00,88.2,89.45,87.63,88.5,2449750
1/7/2019 16:56:00,88.65,89.32,88.06,88.48,2891360
1/8/2019 16:56:00,88.75,88.97,87.87,88.83,3441770
1/9/2019 16:56:00,89.31,90.37,89.12,90.32,8279800
1/10/2019 16:56:00,90.14,90.69,89.83,90.42,2659920
1/11/2019 16:56:00,90.5,90.54,90.02,90.38,2551310
1/14/2019 16:56:00,90.5,91.21,90.1,91.21,4730780
1/15/2019 16:56:00,91.24,91.33,90.11,90.61,3142940
1/16/2019 16:56:00,90.6,91.15,90.38,91.15,2397860